\BOOKMARK [1][-]{section.1}{Kapitel 0 - Einf\374hrung}{}% 1
\BOOKMARK [2][-]{subsection.1.1}{Themen}{section.1}% 2
\BOOKMARK [2][-]{subsection.1.2}{Kurzzusammenfassung}{section.1}% 3
\BOOKMARK [2][-]{subsection.1.3}{Literatur}{section.1}% 4
\BOOKMARK [2][-]{subsection.1.4}{Wichtig}{section.1}% 5
\BOOKMARK [1][-]{section.2}{Kapitel 0.1 - Die Werkzeugkette}{}% 6
\BOOKMARK [2][-]{subsection.2.1}{Themen}{section.2}% 7
\BOOKMARK [2][-]{subsection.2.2}{Kurzzusammenfassung}{section.2}% 8
\BOOKMARK [2][-]{subsection.2.3}{Literatur}{section.2}% 9
\BOOKMARK [2][-]{subsection.2.4}{Wichtig}{section.2}% 10
\BOOKMARK [1][-]{section.3}{Kapitel 0.1.X - Subversion}{}% 11
\BOOKMARK [1][-]{section.4}{Kapitel 1 - Planungsphase}{}% 12
\BOOKMARK [2][-]{subsection.4.1}{Themen}{section.4}% 13
\BOOKMARK [2][-]{subsection.4.2}{Kurzzusammenfassung}{section.4}% 14
\BOOKMARK [2][-]{subsection.4.3}{Literatur}{section.4}% 15
\BOOKMARK [2][-]{subsection.4.4}{Wichtig}{section.4}% 16
\BOOKMARK [1][-]{section.5}{Kapitel 2.0 - Definition \(Analyse\)}{}% 17
\BOOKMARK [2][-]{subsection.5.1}{Kurzzusammenfassung}{section.5}% 18
\BOOKMARK [2][-]{subsection.5.2}{Literatur}{section.5}% 19
\BOOKMARK [2][-]{subsection.5.3}{Wichtig}{section.5}% 20
\BOOKMARK [1][-]{section.6}{Kapitel 2.1 - UML}{}% 21
\BOOKMARK [2][-]{subsection.6.1}{Kurzzusammenfassung}{section.6}% 22
\BOOKMARK [2][-]{subsection.6.2}{Literatur}{section.6}% 23
\BOOKMARK [2][-]{subsection.6.3}{Wichtig}{section.6}% 24
\BOOKMARK [1][-]{section.7}{Kapitel 2.2 - Weitere UML-Datentypen}{}% 25
\BOOKMARK [1][-]{section.8}{Kapitel 2.3 - Objektmodellierung}{}% 26
\BOOKMARK [2][-]{subsection.8.1}{Kurzzusammenfassung}{section.8}% 27
\BOOKMARK [2][-]{subsection.8.2}{Wichtig}{section.8}% 28
\BOOKMARK [2][-]{subsection.8.3}{Literatur}{section.8}% 29
\BOOKMARK [1][-]{section.9}{Kapitel 3 und 3.1 - Entwurfsphase}{}% 30
\BOOKMARK [2][-]{subsection.9.1}{Kurzzusammenfassung}{section.9}% 31
\BOOKMARK [2][-]{subsection.9.2}{Wichtig}{section.9}% 32
\BOOKMARK [2][-]{subsection.9.3}{Literatur}{section.9}% 33
\BOOKMARK [1][-]{section.10}{Kapitel 3.2 - Modularer Entwurf}{}% 34
\BOOKMARK [2][-]{subsection.10.1}{Kurzzusammenfassung}{section.10}% 35
\BOOKMARK [2][-]{subsection.10.2}{Wichtig}{section.10}% 36
\BOOKMARK [2][-]{subsection.10.3}{Literatur}{section.10}% 37
\BOOKMARK [1][-]{section.11}{Kapitel 3.3 - Objektorientierter Entwurf}{}% 38
\BOOKMARK [2][-]{subsection.11.1}{Kurzzusammenfassung}{section.11}% 39
\BOOKMARK [2][-]{subsection.11.2}{Wichtig}{section.11}% 40
\BOOKMARK [2][-]{subsection.11.3}{Literatur}{section.11}% 41
\BOOKMARK [1][-]{section.12}{Kapitel 3.4 - Architekturstile}{}% 42
\BOOKMARK [2][-]{subsection.12.1}{Kurzzusammenfassung}{section.12}% 43
\BOOKMARK [2][-]{subsection.12.2}{Wichtig}{section.12}% 44
\BOOKMARK [2][-]{subsection.12.3}{Literatur}{section.12}% 45
\BOOKMARK [1][-]{section.13}{Kapitel 3.5 - Entwurfsmuster}{}% 46
\BOOKMARK [2][-]{subsection.13.1}{Kurzzusammenfassung}{section.13}% 47
\BOOKMARK [2][-]{subsection.13.2}{Wichtig}{section.13}% 48
\BOOKMARK [2][-]{subsection.13.3}{Literatur}{section.13}% 49
\BOOKMARK [1][-]{section.14}{Kapitel 4.0 - Implementierungsphase}{}% 50
\BOOKMARK [2][-]{subsection.14.1}{Kurzzusammenfassung}{section.14}% 51
\BOOKMARK [2][-]{subsection.14.2}{Wichtig}{section.14}% 52
\BOOKMARK [2][-]{subsection.14.3}{Literatur}{section.14}% 53
\BOOKMARK [1][-]{section.15}{Kapitel 4.1 - Abbildung von UML-Modellen auf Code}{}% 54
\BOOKMARK [2][-]{subsection.15.1}{Kurzzusammenfassung}{section.15}% 55
\BOOKMARK [2][-]{subsection.15.2}{Wichtig}{section.15}% 56
\BOOKMARK [2][-]{subsection.15.3}{Literatur}{section.15}% 57
\BOOKMARK [1][-]{section.16}{Kapitel Grundlagen zur Parallelverarbeitung}{}% 58
\BOOKMARK [2][-]{subsection.16.1}{Kurzzusammenfassung}{section.16}% 59
\BOOKMARK [2][-]{subsection.16.2}{Wichtig}{section.16}% 60
\BOOKMARK [2][-]{subsection.16.3}{Literatur}{section.16}% 61
\BOOKMARK [1][-]{section.17}{Kapitel 4.2.1 - Parallelit\344t in Java}{}% 62
\BOOKMARK [2][-]{subsection.17.1}{Kurzzusammenfassung}{section.17}% 63
\BOOKMARK [2][-]{subsection.17.2}{Wichtig}{section.17}% 64
\BOOKMARK [2][-]{subsection.17.3}{Literatur}{section.17}% 65
\BOOKMARK [1][-]{section.18}{Kapitel 4.2.2 - Parallele Algorithmen}{}% 66
\BOOKMARK [2][-]{subsection.18.1}{Kurzzusammenfassung}{section.18}% 67
\BOOKMARK [2][-]{subsection.18.2}{Wichtig}{section.18}% 68
\BOOKMARK [2][-]{subsection.18.3}{Literatur}{section.18}% 69
\BOOKMARK [1][-]{section.19}{Kapitel 4.3 - Programmierrichtlinien}{}% 70
\BOOKMARK [2][-]{subsection.19.1}{Kurzzusammenfassung}{section.19}% 71
\BOOKMARK [2][-]{subsection.19.2}{Wichtig}{section.19}% 72
\BOOKMARK [2][-]{subsection.19.3}{Literatur}{section.19}% 73
\BOOKMARK [1][-]{section.20}{Kapitel 4.4 - Selbstkontrolliertes Programmieren}{}% 74
\BOOKMARK [2][-]{subsection.20.1}{Kurzzusammenfassung}{section.20}% 75
\BOOKMARK [2][-]{subsection.20.2}{Wichtig}{section.20}% 76
\BOOKMARK [2][-]{subsection.20.3}{Literatur}{section.20}% 77
\BOOKMARK [1][-]{section.21}{Kapitel 5.1 - Testen}{}% 78
\BOOKMARK [2][-]{subsection.21.1}{Kurzzusammenfassung}{section.21}% 79
\BOOKMARK [2][-]{subsection.21.2}{Wichtig}{section.21}% 80
\BOOKMARK [2][-]{subsection.21.3}{Literatur}{section.21}% 81
\BOOKMARK [1][-]{section.22}{Kapitel 6 - Die Abnahme-, Einf\374hrungs-, Wartungs-, und Pflegephase}{}% 82
\BOOKMARK [2][-]{subsection.22.1}{Kurzzusammenfassung}{section.22}% 83
\BOOKMARK [2][-]{subsection.22.2}{Wichtig}{section.22}% 84
\BOOKMARK [2][-]{subsection.22.3}{Literatur}{section.22}% 85
\BOOKMARK [1][-]{section.23}{Kapitel 7 - Aufwandssch\344tzung}{}% 86
\BOOKMARK [2][-]{subsection.23.1}{Kurzzusammenfassung}{section.23}% 87
\BOOKMARK [2][-]{subsection.23.2}{Wichtig}{section.23}% 88
\BOOKMARK [2][-]{subsection.23.3}{Literatur}{section.23}% 89
\BOOKMARK [1][-]{section.24}{Kapitel 8.1 - Prozessmodelle}{}% 90
\BOOKMARK [2][-]{subsection.24.1}{Kurzusammenfassung}{section.24}% 91
\BOOKMARK [2][-]{subsection.24.2}{Wichtig}{section.24}% 92
\BOOKMARK [2][-]{subsection.24.3}{Literatur}{section.24}% 93
\BOOKMARK [1][-]{section.25}{Kapitel 8.2 - Agile Prozesse}{}% 94
\BOOKMARK [2][-]{subsection.25.1}{Kurzzusammenfassung}{section.25}% 95
\BOOKMARK [2][-]{subsection.25.2}{Wichtig}{section.25}% 96
\BOOKMARK [2][-]{subsection.25.3}{Literatur}{section.25}% 97
