\relax 
\providecommand\hyper@newdestlabel[2]{}
\providecommand*\new@tpo@label[2]{}
\catcode `"\active 
\providecommand\HyperFirstAtBeginDocument{\AtBeginDocument}
\HyperFirstAtBeginDocument{\ifx\hyper@anchor\@undefined
\global\let\oldcontentsline\contentsline
\gdef\contentsline#1#2#3#4{\oldcontentsline{#1}{#2}{#3}}
\global\let\oldnewlabel\newlabel
\gdef\newlabel#1#2{\newlabelxx{#1}#2}
\gdef\newlabelxx#1#2#3#4#5#6{\oldnewlabel{#1}{{#2}{#3}}}
\AtEndDocument{\ifx\hyper@anchor\@undefined
\let\contentsline\oldcontentsline
\let\newlabel\oldnewlabel
\fi}
\fi}
\global\let\hyper@last\relax 
\gdef\HyperFirstAtBeginDocument#1{#1}
\providecommand\HyField@AuxAddToFields[1]{}
\providecommand\HyField@AuxAddToCoFields[2]{}
\providecommand\@newglossary[4]{}
\@newglossary{main}{glg}{gls}{glo}
\select@language{german}
\@writefile{toc}{\select@language{german}}
\@writefile{lof}{\select@language{german}}
\@writefile{lot}{\select@language{german}}
\@writefile{toc}{\contentsline {section}{\numberline {1}Kapitel 0 - Einf\IeC {\"u}hrung}{1}{section.1}}
\@writefile{toc}{\contentsline {subsection}{\numberline {1.1}Themen}{1}{subsection.1.1}}
\@writefile{toc}{\contentsline {subsection}{\numberline {1.2}Kurzzusammenfassung}{1}{subsection.1.2}}
\@writefile{toc}{\contentsline {subsection}{\numberline {1.3}Literatur}{3}{subsection.1.3}}
\@writefile{toc}{\contentsline {subsection}{\numberline {1.4}Wichtig}{3}{subsection.1.4}}
\@writefile{toc}{\contentsline {section}{\numberline {2}Kapitel 0.1 - Die Werkzeugkette}{3}{section.2}}
\@writefile{toc}{\contentsline {subsection}{\numberline {2.1}Themen}{3}{subsection.2.1}}
\@writefile{toc}{\contentsline {subsection}{\numberline {2.2}Kurzzusammenfassung}{3}{subsection.2.2}}
\@writefile{toc}{\contentsline {subsection}{\numberline {2.3}Literatur}{5}{subsection.2.3}}
\@writefile{toc}{\contentsline {subsection}{\numberline {2.4}Wichtig}{5}{subsection.2.4}}
\@writefile{toc}{\contentsline {section}{\numberline {3}Kapitel 0.1.X - Subversion}{5}{section.3}}
\@writefile{toc}{\contentsline {section}{\numberline {4}Kapitel 1 - Planungsphase}{5}{section.4}}
\@writefile{toc}{\contentsline {subsection}{\numberline {4.1}Themen}{5}{subsection.4.1}}
\@writefile{toc}{\contentsline {subsection}{\numberline {4.2}Kurzzusammenfassung}{6}{subsection.4.2}}
\@writefile{toc}{\contentsline {subsection}{\numberline {4.3}Literatur}{7}{subsection.4.3}}
\@writefile{toc}{\contentsline {subsection}{\numberline {4.4}Wichtig}{7}{subsection.4.4}}
\@writefile{toc}{\contentsline {section}{\numberline {5}Kapitel 2.0 - Definition (Analyse)}{8}{section.5}}
\@writefile{toc}{\contentsline {subsection}{\numberline {5.1}Kurzzusammenfassung}{8}{subsection.5.1}}
\@writefile{toc}{\contentsline {subsection}{\numberline {5.2}Literatur}{8}{subsection.5.2}}
\@writefile{toc}{\contentsline {subsection}{\numberline {5.3}Wichtig}{8}{subsection.5.3}}
\@writefile{toc}{\contentsline {section}{\numberline {6}Kapitel 2.1 - UML}{8}{section.6}}
\@writefile{toc}{\contentsline {subsection}{\numberline {6.1}Kurzzusammenfassung}{8}{subsection.6.1}}
\@writefile{toc}{\contentsline {subsection}{\numberline {6.2}Literatur}{10}{subsection.6.2}}
\@writefile{toc}{\contentsline {subsection}{\numberline {6.3}Wichtig}{10}{subsection.6.3}}
\@writefile{toc}{\contentsline {section}{\numberline {7}Kapitel 2.2 - Weitere UML-Datentypen}{10}{section.7}}
\@writefile{toc}{\contentsline {section}{\numberline {8}Kapitel 2.3 - Objektmodellierung}{10}{section.8}}
\@writefile{toc}{\contentsline {subsection}{\numberline {8.1}Kurzzusammenfassung}{10}{subsection.8.1}}
\@writefile{toc}{\contentsline {subsection}{\numberline {8.2}Wichtig}{11}{subsection.8.2}}
\@writefile{toc}{\contentsline {subsection}{\numberline {8.3}Literatur}{11}{subsection.8.3}}
\@writefile{toc}{\contentsline {section}{\numberline {9}Kapitel 3 und 3.1 - Entwurfsphase}{11}{section.9}}
\@writefile{toc}{\contentsline {subsection}{\numberline {9.1}Kurzzusammenfassung}{11}{subsection.9.1}}
\@writefile{toc}{\contentsline {subsection}{\numberline {9.2}Wichtig}{12}{subsection.9.2}}
\@writefile{toc}{\contentsline {subsection}{\numberline {9.3}Literatur}{12}{subsection.9.3}}
\@writefile{toc}{\contentsline {section}{\numberline {10}Kapitel 3.2 - Modularer Entwurf}{12}{section.10}}
\@writefile{toc}{\contentsline {subsection}{\numberline {10.1}Kurzzusammenfassung}{12}{subsection.10.1}}
\@writefile{toc}{\contentsline {subsection}{\numberline {10.2}Wichtig}{13}{subsection.10.2}}
\@writefile{toc}{\contentsline {subsection}{\numberline {10.3}Literatur}{13}{subsection.10.3}}
\@writefile{toc}{\contentsline {section}{\numberline {11}Kapitel 3.3 - Objektorientierter Entwurf}{13}{section.11}}
\@writefile{toc}{\contentsline {subsection}{\numberline {11.1}Kurzzusammenfassung}{13}{subsection.11.1}}
\@writefile{toc}{\contentsline {subsection}{\numberline {11.2}Wichtig}{13}{subsection.11.2}}
\@writefile{toc}{\contentsline {subsection}{\numberline {11.3}Literatur}{13}{subsection.11.3}}
\@writefile{toc}{\contentsline {section}{\numberline {12}Kapitel 3.4 - Architekturstile}{13}{section.12}}
\@writefile{toc}{\contentsline {subsection}{\numberline {12.1}Kurzzusammenfassung}{13}{subsection.12.1}}
\@writefile{toc}{\contentsline {subsection}{\numberline {12.2}Wichtig}{20}{subsection.12.2}}
\@writefile{toc}{\contentsline {subsection}{\numberline {12.3}Literatur}{20}{subsection.12.3}}
\@writefile{toc}{\contentsline {section}{\numberline {13}Kapitel 3.5 - Entwurfsmuster}{20}{section.13}}
\@writefile{toc}{\contentsline {subsection}{\numberline {13.1}Kurzzusammenfassung}{20}{subsection.13.1}}
\@writefile{toc}{\contentsline {subsection}{\numberline {13.2}Wichtig}{25}{subsection.13.2}}
\@writefile{toc}{\contentsline {subsection}{\numberline {13.3}Literatur}{25}{subsection.13.3}}
\@writefile{toc}{\contentsline {section}{\numberline {14}Kapitel 4.0 - Implementierungsphase}{25}{section.14}}
\@writefile{toc}{\contentsline {subsection}{\numberline {14.1}Kurzzusammenfassung}{25}{subsection.14.1}}
\@writefile{toc}{\contentsline {subsection}{\numberline {14.2}Wichtig}{26}{subsection.14.2}}
\@writefile{toc}{\contentsline {subsection}{\numberline {14.3}Literatur}{26}{subsection.14.3}}
\@writefile{toc}{\contentsline {section}{\numberline {15}Kapitel 4.1 - Abbildung von UML-Modellen auf Code}{26}{section.15}}
\@writefile{toc}{\contentsline {subsection}{\numberline {15.1}Kurzzusammenfassung}{26}{subsection.15.1}}
\@writefile{toc}{\contentsline {subsection}{\numberline {15.2}Wichtig}{29}{subsection.15.2}}
\@writefile{toc}{\contentsline {subsection}{\numberline {15.3}Literatur}{29}{subsection.15.3}}
\@writefile{toc}{\contentsline {section}{\numberline {16}Kapitel Grundlagen zur Parallelverarbeitung}{29}{section.16}}
\@writefile{toc}{\contentsline {subsection}{\numberline {16.1}Kurzzusammenfassung}{29}{subsection.16.1}}
\@writefile{toc}{\contentsline {subsection}{\numberline {16.2}Wichtig}{32}{subsection.16.2}}
\@writefile{toc}{\contentsline {subsection}{\numberline {16.3}Literatur}{32}{subsection.16.3}}
\@writefile{toc}{\contentsline {section}{\numberline {17}Kapitel 4.2.1 - Parallelit\IeC {\"a}t in Java}{32}{section.17}}
\@writefile{toc}{\contentsline {subsection}{\numberline {17.1}Kurzzusammenfassung}{32}{subsection.17.1}}
\@writefile{toc}{\contentsline {subsection}{\numberline {17.2}Wichtig}{39}{subsection.17.2}}
\@writefile{toc}{\contentsline {subsection}{\numberline {17.3}Literatur}{39}{subsection.17.3}}
\@writefile{toc}{\contentsline {section}{\numberline {18}Kapitel 4.2.2 - Parallele Algorithmen}{39}{section.18}}
\@writefile{toc}{\contentsline {subsection}{\numberline {18.1}Kurzzusammenfassung}{39}{subsection.18.1}}
\@writefile{toc}{\contentsline {subsection}{\numberline {18.2}Wichtig}{39}{subsection.18.2}}
\@writefile{toc}{\contentsline {subsection}{\numberline {18.3}Literatur}{39}{subsection.18.3}}
\@writefile{toc}{\contentsline {section}{\numberline {19}Kapitel 4.3 - Programmierrichtlinien}{39}{section.19}}
\@writefile{toc}{\contentsline {subsection}{\numberline {19.1}Kurzzusammenfassung}{39}{subsection.19.1}}
\@writefile{toc}{\contentsline {subsection}{\numberline {19.2}Wichtig}{40}{subsection.19.2}}
\@writefile{toc}{\contentsline {subsection}{\numberline {19.3}Literatur}{40}{subsection.19.3}}
\@writefile{toc}{\contentsline {section}{\numberline {20}Kapitel 4.4 - Selbstkontrolliertes Programmieren}{40}{section.20}}
\@writefile{toc}{\contentsline {subsection}{\numberline {20.1}Kurzzusammenfassung}{40}{subsection.20.1}}
\@writefile{toc}{\contentsline {subsection}{\numberline {20.2}Wichtig}{43}{subsection.20.2}}
\@writefile{toc}{\contentsline {subsection}{\numberline {20.3}Literatur}{43}{subsection.20.3}}
\@writefile{toc}{\contentsline {section}{\numberline {21}Kapitel 5.1 - Testen}{43}{section.21}}
\@writefile{toc}{\contentsline {subsection}{\numberline {21.1}Kurzzusammenfassung}{43}{subsection.21.1}}
\@writefile{toc}{\contentsline {subsection}{\numberline {21.2}Wichtig}{56}{subsection.21.2}}
\@writefile{toc}{\contentsline {subsection}{\numberline {21.3}Literatur}{56}{subsection.21.3}}
\@writefile{toc}{\contentsline {section}{\numberline {22}Kapitel 6 - Die Abnahme-, Einf\IeC {\"u}hrungs-, Wartungs-, und Pflegephase}{57}{section.22}}
\@writefile{toc}{\contentsline {subsection}{\numberline {22.1}Kurzzusammenfassung}{57}{subsection.22.1}}
\@writefile{toc}{\contentsline {subsection}{\numberline {22.2}Wichtig}{63}{subsection.22.2}}
\@writefile{toc}{\contentsline {subsection}{\numberline {22.3}Literatur}{63}{subsection.22.3}}
\@writefile{toc}{\contentsline {section}{\numberline {23}Kapitel 7 - Aufwandssch\IeC {\"a}tzung}{63}{section.23}}
\@writefile{toc}{\contentsline {subsection}{\numberline {23.1}Kurzzusammenfassung}{63}{subsection.23.1}}
\@writefile{toc}{\contentsline {subsection}{\numberline {23.2}Wichtig}{69}{subsection.23.2}}
\@writefile{toc}{\contentsline {subsection}{\numberline {23.3}Literatur}{69}{subsection.23.3}}
\@writefile{toc}{\contentsline {section}{\numberline {24}Kapitel 8.1 - Prozessmodelle}{69}{section.24}}
\@writefile{toc}{\contentsline {subsection}{\numberline {24.1}Kurzusammenfassung}{69}{subsection.24.1}}
\@writefile{toc}{\contentsline {subsection}{\numberline {24.2}Wichtig}{76}{subsection.24.2}}
\@writefile{toc}{\contentsline {subsection}{\numberline {24.3}Literatur}{76}{subsection.24.3}}
\@writefile{toc}{\contentsline {section}{\numberline {25}Kapitel 8.2 - Agile Prozesse}{76}{section.25}}
\@writefile{toc}{\contentsline {subsection}{\numberline {25.1}Kurzzusammenfassung}{76}{subsection.25.1}}
\@writefile{toc}{\contentsline {subsection}{\numberline {25.2}Wichtig}{87}{subsection.25.2}}
\@writefile{toc}{\contentsline {subsection}{\numberline {25.3}Literatur}{87}{subsection.25.3}}
